mips_tb.vcd
$date
	Sun Dec 03 19:49:30 2023
$end
$version
	Icarus Verilog
$end
$timescale
	1ps
$end
$scope module mips_txt $end
$var wire 32 ! i_inst_rdata [31:0] $end
$var wire 32 " m_data_rdata [31:0] $end
$var wire 32 # w_inst_addr [31:0] $end
$var wire 1 $ w_grf_we $end
$var wire 32 % w_grf_wdata [31:0] $end
$var wire 5 & w_grf_addr [4:0] $end
$var wire 32 ' m_inst_addr [31:0] $end
$var wire 32 ( m_data_wdata [31:0] $end
$var wire 4 ) m_data_byteen [3:0] $end
$var wire 32 * m_data_addr [31:0] $end
$var wire 32 + i_inst_addr [31:0] $end
$var reg 1 , clk $end
$var reg 32 - fixed_addr [31:0] $end
$var reg 32 . fixed_wdata [31:0] $end
$var reg 1 / reset $end
$var integer 32 0 i [31:0] $end
$scope module u_mips $end
$var wire 32 1 Instr_F [31:0] $end
$var wire 1 , clk $end
$var wire 32 2 i_inst_addr [31:0] $end
$var wire 32 3 i_inst_rdata [31:0] $end
$var wire 32 4 m_data_addr [31:0] $end
$var wire 32 5 m_data_rdata [31:0] $end
$var wire 32 6 m_inst_addr [31:0] $end
$var wire 1 / reset $end
$var wire 1 7 reset_E $end
$var wire 5 8 w_grf_addr [4:0] $end
$var wire 32 9 w_grf_wdata [31:0] $end
$var wire 1 $ w_grf_we $end
$var wire 32 : w_inst_addr [31:0] $end
$var wire 32 ; npc_D [31:0] $end
$var wire 32 < m_data_wdata [31:0] $end
$var wire 4 = m_data_byteen [3:0] $end
$var wire 2 > WriteSel_W [1:0] $end
$var wire 2 ? WriteSel_M [1:0] $end
$var wire 2 @ WriteSel_E [1:0] $end
$var wire 2 A WriteSel_D [1:0] $end
$var wire 5 B WriteReg_W [4:0] $end
$var wire 5 C WriteReg_M [4:0] $end
$var wire 5 D WriteReg_E [4:0] $end
$var wire 32 E WriteData_M [31:0] $end
$var wire 32 F WriteData_E [31:0] $end
$var wire 1 G WE_F $end
$var wire 1 H WE_D $end
$var wire 1 I StallF $end
$var wire 1 J StallD $end
$var wire 32 K SrcB [31:0] $end
$var wire 32 L SrcA [31:0] $end
$var wire 32 M SignImm_W [31:0] $end
$var wire 32 N SignImm_M [31:0] $end
$var wire 32 O SignImm_E [31:0] $end
$var wire 32 P SignImm_D [31:0] $end
$var wire 5 Q Rt_E [4:0] $end
$var wire 1 R Rt_D_valid $end
$var wire 5 S Rt_D [4:0] $end
$var wire 5 T Rs_E [4:0] $end
$var wire 1 U Rs_D_valid $end
$var wire 5 V Rs_D [4:0] $end
$var wire 32 W Result_W [31:0] $end
$var wire 32 X Result1_W [31:0] $end
$var wire 1 Y RegWrite_W $end
$var wire 1 Z RegWrite_M $end
$var wire 1 [ RegWrite_E $end
$var wire 1 \ RegWrite_D $end
$var wire 2 ] RegDst_E [1:0] $end
$var wire 2 ^ RegDst_D [1:0] $end
$var wire 32 _ ReadData_W [31:0] $end
$var wire 32 ` ReadData_M [31:0] $end
$var wire 5 a Rd_E [4:0] $end
$var wire 5 b Rd_D [4:0] $end
$var wire 32 c RD2_E [31:0] $end
$var wire 32 d RD2_D [31:0] $end
$var wire 32 e RD1_E [31:0] $end
$var wire 32 f RD1_D [31:0] $end
$var wire 32 g PC_W [31:0] $end
$var wire 32 h PC_M [31:0] $end
$var wire 32 i PC_F [31:0] $end
$var wire 32 j PC_E [31:0] $end
$var wire 32 k PC_D [31:0] $end
$var wire 1 l MemtoReg_W $end
$var wire 1 m MemtoReg_M $end
$var wire 1 n MemtoReg_E $end
$var wire 1 o MemtoReg_D $end
$var wire 1 p MemWrite_M $end
$var wire 1 q MemWrite_E $end
$var wire 1 r MemWrite_D $end
$var wire 1 s MDU_busy $end
$var wire 1 t MDUStart_E $end
$var wire 1 u MDUStart_D $end
$var wire 32 v MDUOut_W [31:0] $end
$var wire 32 w MDUOut_M [31:0] $end
$var wire 32 x MDUOut_E [31:0] $end
$var wire 32 y MDUOp_E [31:0] $end
$var wire 4 z MDUOp_D [3:0] $end
$var wire 1 { Jump_D $end
$var wire 1 | Jr_D $end
$var wire 32 } Instr_W [31:0] $end
$var wire 32 ~ Instr_M [31:0] $end
$var wire 32 !" Instr_E [31:0] $end
$var wire 32 "" Instr_D [31:0] $end
$var wire 4 #" ForwardBE [3:0] $end
$var wire 4 $" ForwardBD [3:0] $end
$var wire 4 %" ForwardAE [3:0] $end
$var wire 4 &" ForwardAD [3:0] $end
$var wire 1 '" FlushE $end
$var wire 1 (" Branch_or_not $end
$var wire 1 )" Branch_D $end
$var wire 1 *" ALUSrc_E $end
$var wire 1 +" ALUSrc_D $end
$var wire 32 ," ALUOut_W [31:0] $end
$var wire 32 -" ALUOut_M [31:0] $end
$var wire 32 ." ALUOut_E [31:0] $end
$var wire 4 /" ALUCtrl_E [3:0] $end
$var wire 4 0" ALUCtrl_D [3:0] $end
$scope module u_D $end
$var wire 5 1" A3 [4:0] $end
$var wire 4 2" ALUCtrl_D [3:0] $end
$var wire 1 +" ALUSrc_D $end
$var wire 1 )" Branch_D $end
$var wire 1 | Jr_D $end
$var wire 1 { Jump_D $end
$var wire 4 3" MDUOp_D [3:0] $end
$var wire 1 u MDUStart_D $end
$var wire 1 r MemWrite_D $end
$var wire 1 o MemtoReg_D $end
$var wire 32 4" RD1_D [31:0] $end
$var wire 32 5" RD2_D [31:0] $end
$var wire 2 6" RegDst_D [1:0] $end
$var wire 1 \ RegWrite_D $end
$var wire 32 7" Result_W [31:0] $end
$var wire 32 8" SignImm_D [31:0] $end
$var wire 32 9" WD3 [31:0] $end
$var wire 2 :" WriteSel_D [1:0] $end
$var wire 1 , clk $end
$var wire 32 ;" npc [31:0] $end
$var wire 1 / reset $end
$var wire 32 <" right [31:0] $end
$var wire 6 =" opcode [5:0] $end
$var wire 32 >" left [31:0] $end
$var wire 16 ?" imm [15:0] $end
$var wire 6 @" func [5:0] $end
$var wire 2 A" WriteSel [1:0] $end
$var wire 5 B" WriteReg_W [4:0] $end
$var wire 1 J Stall $end
$var wire 32 C" SignImm_M [31:0] $end
$var wire 32 D" SignImm_E [31:0] $end
$var wire 5 E" Rt_D [4:0] $end
$var wire 5 F" Rs_D [4:0] $end
$var wire 1 Y RegWrite_W $end
$var wire 1 G" RegWrite $end
$var wire 2 H" RegDst [1:0] $end
$var wire 5 I" Rd_D [4:0] $end
$var wire 32 J" RD2 [31:0] $end
$var wire 32 K" RD1 [31:0] $end
$var wire 32 L" PC_W [31:0] $end
$var wire 32 M" PC_M [31:0] $end
$var wire 32 N" PC_F [31:0] $end
$var wire 32 O" PC_E [31:0] $end
$var wire 32 P" PC_D [31:0] $end
$var wire 32 Q" NPC_D [31:0] $end
$var wire 1 R" MemtoReg $end
$var wire 1 S" MemWrite $end
$var wire 1 T" MDUStart $end
$var wire 32 U" MDUOut_M [31:0] $end
$var wire 4 V" MDUOp [3:0] $end
$var wire 1 W" Jump $end
$var wire 1 X" Jr $end
$var wire 32 Y" Instr_D [31:0] $end
$var wire 4 Z" ForwardBD [3:0] $end
$var wire 4 [" ForwardAD [3:0] $end
$var wire 32 \" Ext_out [31:0] $end
$var wire 2 ]" ExtSel [1:0] $end
$var wire 1 (" Branch_or_not $end
$var wire 1 ^" Branch $end
$var wire 1 _" ALUSrc $end
$var wire 32 `" ALUOut_M [31:0] $end
$var wire 4 a" ALUCtrl [3:0] $end
$var wire 5 b" A2 [4:0] $end
$var wire 5 c" A1 [4:0] $end
$scope module u_D_CMP $end
$var wire 32 d" left [31:0] $end
$var wire 32 e" right [31:0] $end
$var wire 1 f" temp $end
$var wire 32 g" instr [31:0] $end
$var wire 1 (" Branch_or_not $end
$var wire 1 ^" Branch $end
$upscope $end
$scope module u_D_CU $end
$var wire 6 h" func [5:0] $end
$var wire 6 i" opcode [5:0] $end
$var wire 32 j" instr [31:0] $end
$var wire 2 k" WriteSel [1:0] $end
$var wire 1 G" RegWrite $end
$var wire 2 l" RegDst [1:0] $end
$var wire 1 R" MemtoReg $end
$var wire 1 S" MemWrite $end
$var wire 1 T" MDUStart $end
$var wire 4 m" MDUOp [3:0] $end
$var wire 1 W" Jump $end
$var wire 1 X" Jr $end
$var wire 2 n" ExtSel [1:0] $end
$var wire 1 ^" Branch $end
$var wire 1 _" ALUSrc $end
$var wire 2 o" ALUOp [1:0] $end
$var wire 4 p" ALUCtrl [3:0] $end
$upscope $end
$scope module u_D_EXT $end
$var wire 2 q" ExtSel [1:0] $end
$var wire 16 r" imm [15:0] $end
$var wire 32 s" Ext_out [31:0] $end
$upscope $end
$scope module u_D_GRF $end
$var wire 5 t" A1 [4:0] $end
$var wire 5 u" A2 [4:0] $end
$var wire 5 v" A3 [4:0] $end
$var wire 32 w" WD3 [31:0] $end
$var wire 1 , clk $end
$var wire 1 / reset $end
$var wire 32 x" pc [31:0] $end
$var wire 32 y" instr [31:0] $end
$var wire 1 Y WE $end
$var wire 32 z" RD2 [31:0] $end
$var wire 32 {" RD1 [31:0] $end
$var integer 32 |" i [31:0] $end
$upscope $end
$scope module u_D_NPC $end
$var wire 1 (" Branch_or_not $end
$var wire 32 }" Ext_out [31:0] $end
$var wire 1 X" Jr $end
$var wire 1 W" Jump $end
$var wire 32 ~" RD1_D [31:0] $end
$var wire 1 / reset $end
$var wire 32 !# instr [31:0] $end
$var wire 1 J Stall $end
$var wire 32 "# PC_F [31:0] $end
$var wire 32 ## PC_D [31:0] $end
$var wire 32 $# NPC_D [31:0] $end
$upscope $end
$upscope $end
$scope module u_D_REG $end
$var wire 32 %# Instr_F [31:0] $end
$var wire 1 H WE $end
$var wire 1 , clk $end
$var wire 1 / reset $end
$var wire 32 &# PC_F [31:0] $end
$var reg 32 '# Instr_D [31:0] $end
$var reg 32 (# PC_D [31:0] $end
$upscope $end
$scope module u_E_ALU $end
$var wire 1 )# Overflow $end
$var wire 32 *# SrcA [31:0] $end
$var wire 32 +# SrcB [31:0] $end
$var wire 5 ,# shamt [4:0] $end
$var wire 1 -# Zero $end
$var wire 32 .# ALUOut [31:0] $end
$var wire 4 /# ALUCtrl [3:0] $end
$var reg 1 0# flag $end
$var reg 32 1# result [31:0] $end
$var reg 33 2# temp [32:0] $end
$upscope $end
$scope module u_E_MDU $end
$var wire 32 3# A [31:0] $end
$var wire 32 4# B [31:0] $end
$var wire 4 5# MDUOp [3:0] $end
$var wire 1 , clk $end
$var wire 1 / reset $end
$var wire 1 t start $end
$var wire 32 6# out [31:0] $end
$var reg 32 7# HI [31:0] $end
$var reg 32 8# HI_temp [31:0] $end
$var reg 32 9# LO [31:0] $end
$var reg 32 :# LO_temp [31:0] $end
$var reg 1 s busy $end
$var reg 5 ;# cnt [4:0] $end
$var reg 5 <# max [4:0] $end
$upscope $end
$scope module u_E_REG $end
$var wire 4 =# ALUCtrl_D [3:0] $end
$var wire 1 +" ALUSrc_D $end
$var wire 32 ># Instr_D [31:0] $end
$var wire 4 ?# MDUOp_D [3:0] $end
$var wire 1 u MDUStart_D $end
$var wire 1 r MemWrite_D $end
$var wire 1 o MemtoReg_D $end
$var wire 32 @# PC_D [31:0] $end
$var wire 32 A# RD1_D [31:0] $end
$var wire 32 B# RD2_D [31:0] $end
$var wire 5 C# Rd_D [4:0] $end
$var wire 2 D# RegDst_D [1:0] $end
$var wire 1 \ RegWrite_D $end
$var wire 5 E# Rs_D [4:0] $end
$var wire 5 F# Rt_D [4:0] $end
$var wire 32 G# SignImm_D [31:0] $end
$var wire 2 H# WriteSel_D [1:0] $end
$var wire 1 , clk $end
$var wire 1 7 reset $end
$var reg 4 I# ALUCtrl_E [3:0] $end
$var reg 1 *" ALUSrc_E $end
$var reg 32 J# Instr_E [31:0] $end
$var reg 4 K# MDUOp_E [3:0] $end
$var reg 1 t MDUStart_E $end
$var reg 1 q MemWrite_E $end
$var reg 1 n MemtoReg_E $end
$var reg 32 L# PC_E [31:0] $end
$var reg 32 M# RD1_E [31:0] $end
$var reg 32 N# RD2_E [31:0] $end
$var reg 5 O# Rd_E [4:0] $end
$var reg 2 P# RegDst_E [1:0] $end
$var reg 1 [ RegWrite_E $end
$var reg 5 Q# Rs_E [4:0] $end
$var reg 5 R# Rt_E [4:0] $end
$var reg 32 S# SignImm_E [31:0] $end
$var reg 2 T# WriteSel_E [1:0] $end
$upscope $end
$scope module u_F_IFU $end
$var wire 1 G WE $end
$var wire 1 , clk $end
$var wire 32 U# npc [31:0] $end
$var wire 1 / reset $end
$var reg 32 V# PC_F [31:0] $end
$upscope $end
$scope module u_Hazard $end
$var wire 1 )" Branch_D $end
$var wire 1 '" FlushE $end
$var wire 1 | Jr_D $end
$var wire 1 { Jump_D $end
$var wire 4 W# MDUOp_D [3:0] $end
$var wire 1 s MDU_busy $end
$var wire 1 t MDU_start $end
$var wire 1 n MemtoReg_E $end
$var wire 1 [ RegWrite_E $end
$var wire 5 X# Rs_D [4:0] $end
$var wire 1 U Rs_D_valid $end
$var wire 5 Y# Rs_E [4:0] $end
$var wire 5 Z# Rt_D [4:0] $end
$var wire 1 R Rt_D_valid $end
$var wire 5 [# Rt_E [4:0] $end
$var wire 1 J StallD $end
$var wire 1 I StallF $end
$var wire 5 \# WriteReg_E [4:0] $end
$var wire 2 ]# WriteSel_E [1:0] $end
$var wire 1 ^# branchstall $end
$var wire 1 _# jrstall $end
$var wire 1 `# lwstall $end
$var wire 1 a# mulstall $end
$var wire 2 b# WriteSel_M [1:0] $end
$var wire 5 c# WriteReg_W [4:0] $end
$var wire 5 d# WriteReg_M [4:0] $end
$var wire 1 Y RegWrite_W $end
$var wire 1 Z RegWrite_M $end
$var wire 1 m MemtoReg_M $end
$var wire 4 e# ForwardBE [3:0] $end
$var wire 4 f# ForwardBD [3:0] $end
$var wire 4 g# ForwardAE [3:0] $end
$var wire 4 h# ForwardAD [3:0] $end
$upscope $end
$scope module u_M_DM $end
$var wire 1 , clk $end
$var wire 1 / reset $end
$var wire 32 i# pc [31:0] $end
$var wire 32 j# m_data_wdata [31:0] $end
$var wire 4 k# m_data_byteen [3:0] $end
$var wire 32 l# instr [31:0] $end
$var wire 32 m# WriteData [31:0] $end
$var wire 1 p MemWrite $end
$var wire 32 n# ALUOut [31:0] $end
$upscope $end
$scope module u_M_EXT $end
$var wire 32 o# readData [31:0] $end
$var wire 32 p# readAddr [31:0] $end
$var wire 32 q# pc [31:0] $end
$var wire 32 r# out [31:0] $end
$var wire 32 s# instr [31:0] $end
$upscope $end
$scope module u_M_REG $end
$var wire 32 t# ALUOut_E [31:0] $end
$var wire 32 u# Instr_E [31:0] $end
$var wire 32 v# MDUOut_E [31:0] $end
$var wire 1 q MemWrite_E $end
$var wire 1 n MemtoReg_E $end
$var wire 32 w# PC_E [31:0] $end
$var wire 1 [ RegWrite_E $end
$var wire 32 x# SignImm_E [31:0] $end
$var wire 32 y# WriteData_E [31:0] $end
$var wire 5 z# WriteReg_E [4:0] $end
$var wire 2 {# WriteSel_E [1:0] $end
$var wire 1 , clk $end
$var wire 1 / reset $end
$var reg 32 |# ALUOut_M [31:0] $end
$var reg 32 }# Instr_M [31:0] $end
$var reg 32 ~# MDUOut_M [31:0] $end
$var reg 1 p MemWrite_M $end
$var reg 1 m MemtoReg_M $end
$var reg 32 !$ PC_M [31:0] $end
$var reg 1 Z RegWrite_M $end
$var reg 32 "$ SignImm_M [31:0] $end
$var reg 32 #$ WriteData_M [31:0] $end
$var reg 5 $$ WriteReg_M [4:0] $end
$var reg 2 %$ WriteSel_M [1:0] $end
$upscope $end
$scope module u_W_REG $end
$var wire 32 &$ ALUOut_M [31:0] $end
$var wire 32 '$ Instr_M [31:0] $end
$var wire 32 ($ MDUOut_M [31:0] $end
$var wire 1 m MemtoReg_M $end
$var wire 32 )$ PC_M [31:0] $end
$var wire 32 *$ ReadData_M [31:0] $end
$var wire 1 Z RegWrite_M $end
$var wire 32 +$ SignImm_M [31:0] $end
$var wire 5 ,$ WriteReg_M [4:0] $end
$var wire 2 -$ WriteSel_M [1:0] $end
$var wire 1 , clk $end
$var wire 1 / reset $end
$var reg 32 .$ ALUOut_W [31:0] $end
$var reg 32 /$ Instr_W [31:0] $end
$var reg 32 0$ MDUOut_W [31:0] $end
$var reg 1 l MemtoReg_W $end
$var reg 32 1$ PC_W [31:0] $end
$var reg 32 2$ ReadData_W [31:0] $end
$var reg 1 Y RegWrite_W $end
$var reg 32 3$ SignImm_W [31:0] $end
$var reg 5 4$ WriteReg_W [4:0] $end
$var reg 2 5$ WriteSel_W [1:0] $end
$upscope $end
$upscope $end
$upscope $end
$enddefinitions $end
#0
$dumpvars
b0 5$
b0 4$
b0 3$
b0 2$
b0 1$
b0 0$
b0 /$
b0 .$
b0 -$
b0 ,$
b0 +$
b0 *$
b0 )$
b0 ($
b0 '$
b0 &$
b0 %$
b0 $$
b0 #$
b0 "$
b0 !$
b0 ~#
b0 }#
b0 |#
b0 {#
b0 z#
b0 y#
b0 x#
b0 w#
b0 v#
b0 u#
b0 t#
b0 s#
b0 r#
b0 q#
b0 p#
b0 o#
b0 n#
b0 m#
b0 l#
b0 k#
b0 j#
b0 i#
b0 h#
b0 g#
b0 f#
b0 e#
b0 d#
b0 c#
b0 b#
0a#
0`#
0_#
0^#
b0 ]#
b0 \#
b0 [#
b0 Z#
b0 Y#
b0 X#
b0 W#
bx V#
bx U#
b0 T#
b0 S#
b0 R#
b0 Q#
b0 P#
b0 O#
b0 N#
b0 M#
b0 L#
b0 K#
b0 J#
b0 I#
b0 H#
b0 G#
b0 F#
b0 E#
b1 D#
b0 C#
b0 B#
b0 A#
b11000000000000 @#
b0 ?#
b0 >#
b1 =#
bx <#
bx ;#
bx :#
bx 9#
bx 8#
bx 7#
b0 6#
b0 5#
b0 4#
b0 3#
bx 2#
b0 1#
00#
b0 /#
b0 .#
1-#
bz ,#
b0 +#
b0 *#
0)#
b11000000000000 (#
b0 '#
bx &#
bx %#
bx $#
b11000000000000 ##
bx "#
b0 !#
b0 ~"
b0 }"
b11111 |"
b0 {"
b0 z"
b0 y"
b0 x"
b0 w"
b0 v"
b0 u"
b0 t"
b0 s"
b0 r"
b0 q"
b1 p"
b10 o"
b0 n"
b0 m"
b1 l"
b0 k"
b0 j"
b0 i"
b0 h"
b0 g"
0f"
b0 e"
b0 d"
b0 c"
b0 b"
b1 a"
b0 `"
0_"
0^"
b0 ]"
b0 \"
b0 ["
b0 Z"
b0 Y"
0X"
0W"
b0 V"
b0 U"
0T"
0S"
0R"
bx Q"
b11000000000000 P"
b0 O"
bx N"
b0 M"
b0 L"
b0 K"
b0 J"
b0 I"
b1 H"
1G"
b0 F"
b0 E"
b0 D"
b0 C"
b0 B"
b0 A"
b0 @"
b0 ?"
b0 >"
b0 ="
b0 <"
bx ;"
b0 :"
b0 9"
b0 8"
b0 7"
b1 6"
b0 5"
b0 4"
b0 3"
b1 2"
b0 1"
b1 0"
b0 /"
b0 ."
b0 -"
b0 ,"
0+"
0*"
0)"
0("
0'"
b0 &"
b0 %"
b0 $"
b0 #"
b0 ""
b0 !"
b0 ~
b0 }
0|
0{
b0 z
bz0000 y
b0 x
b0 w
b0 v
0u
0t
xs
0r
0q
0p
0o
0n
0m
0l
b11000000000000 k
b0 j
bx i
b0 h
b0 g
b0 f
b0 e
b0 d
b0 c
b0 b
b0 a
b0 `
b0 _
b1 ^
b0 ]
1\
0[
0Z
0Y
b0 X
b0 W
b0 V
1U
b0 T
b0 S
1R
b0 Q
b0 P
b0 O
b0 N
b0 M
b0 L
b0 K
0J
0I
1H
1G
b0 F
b0 E
b0 D
b0 C
b0 B
b0 A
b0 @
b0 ?
b0 >
b0 =
b0 <
bx ;
b0 :
b0 9
b0 8
17
b0 6
b0 5
b0 4
bx 3
bx 2
bx 1
b1000000000000 0
1/
b0 .
b0 -
0,
bx +
b0 *
b0 )
b0 (
b0 '
b0 &
b0 %
0$
b0 #
b0 "
bx !
$end
#2000
b11000000000100 ;
b11000000000100 ;"
b11000000000100 U#
b11000000000100 Q"
b11000000000100 $#
b111100000000010001001000110100 1
b111100000000010001001000110100 %#
b111100000000010001001000110100 !
b111100000000010001001000110100 3
b11000000000000 +
b11000000000000 2
b11000000000000 i
b11000000000000 N"
b11000000000000 "#
b11000000000000 &#
b11000000000000 V#
b0 :#
b0 8#
b0 9#
b0 7#
0s
b0 ;#
b11111 |"
b1000000000000 0
1,
#4000
0,
#6000
b1000000000000 0
b11111 |"
1,
#8000
0,
#10000
b11111 |"
b1000000000000 0
1,
#12000
0,
#14000
b1000000000000 0
b11111 |"
1,
#16000
0,
#18000
b11111 |"
b1000000000000 0
1,
#20000
0,
07
0/
#22000
b10 0"
b10 2"
b10 =#
b10 a"
b10 p"
0R
b1 A
b1 :"
b1 H#
b1 A"
b1 k"
b0 ^
b0 6"
b0 D#
b0 H"
b0 l"
b0 o"
0U
b10 ]"
b10 n"
b10 q"
b10010001101000000000000000000 P
b10010001101000000000000000000 8"
b10010001101000000000000000000 G#
b10010001101000000000000000000 \"
b10010001101000000000000000000 s"
b10010001101000000000000000000 }"
b110100 @"
b110100 h"
b1111 ="
b1111 i"
b1 b"
b1 u"
b1001000110100 ?"
b1001000110100 r"
b10 b
b10 I"
b10 C#
b1 S
b1 E"
b1 F#
b1 Z#
b11000000001000 ;
b11000000001000 ;"
b11000000001000 U#
b11000000001000 Q"
b11000000001000 $#
b110100001000010101011001111000 1
b110100001000010101011001111000 %#
b110100001000010101011001111000 !
b110100001000010101011001111000 3
b11000000000000 j
b11000000000000 O"
b11000000000000 L#
b11000000000000 w#
b1 /"
b1 /#
b1 I#
b1 ]
b1 P#
1[
b111100000000010001001000110100 ""
b111100000000010001001000110100 Y"
b111100000000010001001000110100 g"
b111100000000010001001000110100 j"
b111100000000010001001000110100 y"
b111100000000010001001000110100 !#
b111100000000010001001000110100 '#
b111100000000010001001000110100 >#
b11000000000100 +
b11000000000100 2
b11000000000100 i
b11000000000100 N"
b11000000000100 "#
b11000000000100 &#
b11000000000100 V#
1,
#24000
0,
#26000
0-#
b10010001101000000000000000000 ."
b10010001101000000000000000000 .#
b10010001101000000000000000000 1#
b10010001101000000000000000000 t#
b10010001101000000000000000000 K
b10010001101000000000000000000 +#
b10010001101000000000000000000 4#
b10010001101000000000000000000 F
b10010001101000000000000000000 y#
1+"
1_"
b1 0"
b1 2"
b1 =#
b1 a"
b1 p"
b10010001101000000000000000000 d
b10010001101000000000000000000 5"
b10010001101000000000000000000 B#
b10010001101000000000000000000 <"
b10010001101000000000000000000 e"
b10010001101000000000000000000 f
b10010001101000000000000000000 4"
b10010001101000000000000000000 A#
b10010001101000000000000000000 >"
b10010001101000000000000000000 d"
b10010001101000000000000000000 ~"
b101 #"
b101 e#
b101 $"
b101 Z"
b101 f#
b101 &"
b101 ["
b101 h#
1\
1G"
b0 A
b0 :"
b0 H#
b0 A"
b0 k"
b101011001111000 P
b101011001111000 8"
b101011001111000 G#
b101011001111000 \"
b101011001111000 s"
b101011001111000 }"
1U
b1 ]"
b1 n"
b1 q"
b11 o"
b1 D
b1 \#
b1 z#
b11000000001100 ;
b11000000001100 ;"
b11000000001100 U#
b11000000001100 Q"
b11000000001100 $#
b100000010010000000100101 1
b100000010010000000100101 %#
b100000010010000000100101 !
b100000010010000000100101 3
b111000 @"
b111000 h"
b1101 ="
b1101 i"
b1 c"
b1 t"
b101011001111000 ?"
b101011001111000 r"
b1010 b
b1010 I"
b1010 C#
b1 V
b1 F"
b1 E#
b1 X#
b10010001101000000000000000000 2#
b11000000001000 +
b11000000001000 2
b11000000001000 i
b11000000001000 N"
b11000000001000 "#
b11000000001000 &#
b11000000001000 V#
b110100001000010101011001111000 ""
b110100001000010101011001111000 Y"
b110100001000010101011001111000 g"
b110100001000010101011001111000 j"
b110100001000010101011001111000 y"
b110100001000010101011001111000 !#
b110100001000010101011001111000 '#
b110100001000010101011001111000 >#
b11000000000100 k
b11000000000100 P"
b11000000000100 ##
b11000000000100 (#
b11000000000100 @#
b111100000000010001001000110100 !"
b111100000000010001001000110100 J#
b111100000000010001001000110100 u#
b10010001101000000000000000000 O
b10010001101000000000000000000 D"
b10010001101000000000000000000 S#
b10010001101000000000000000000 x#
b10 a
b10 O#
b1 Q
b1 R#
b1 [#
b10 /"
b10 /#
b10 I#
b1 @
b1 T#
b1 ]#
b1 {#
b0 ]
b0 P#
b11000000000000 '
b11000000000000 6
b11000000000000 h
b11000000000000 M"
b11000000000000 i#
b11000000000000 q#
b11000000000000 !$
b11000000000000 )$
1Z
1,
#28000
0,
#30000
1\
1G"
0+"
0_"
b10 %"
b10 g#
1R
b10010001101000000000000000000 L
b10010001101000000000000000000 *#
b10010001101000000000000000000 3#
b10 #"
b10 e#
b0 ]"
b0 n"
b0 q"
b10010001101000000000000000000 (
b10010001101000000000000000000 <
b10010001101000000000000000000 j#
b10010001101000000000000000000 F
b10010001101000000000000000000 y#
b10010001101000101011001111000 ."
b10010001101000101011001111000 .#
b10010001101000101011001111000 1#
b10010001101000101011001111000 t#
b0 &"
b0 ["
b0 h#
b1 $"
b1 Z"
b1 f#
b1 ^
b1 6"
b1 D#
b1 H"
b1 l"
b10000000100101 P
b10000000100101 8"
b10000000100101 G#
b10000000100101 \"
b10000000100101 s"
b10000000100101 }"
b10010001101000000000000000000 d
b10010001101000000000000000000 5"
b10010001101000000000000000000 B#
b10010001101000000000000000000 <"
b10010001101000000000000000000 e"
b0 f
b0 4"
b0 A#
b0 >"
b0 d"
b0 ~"
b101011001111000 K
b101011001111000 +#
b101011001111000 4#
b10 o"
bx "
bx 5
bx o#
b10010001101000000000000000000 -
bx .
b100101 @"
b100101 h"
b0 ="
b0 i"
b100 c"
b100 t"
b10000000100101 ?"
b10000000100101 r"
b100 b
b100 I"
b100 C#
b100 V
b100 F"
b100 E#
b100 X#
b11000000010000 ;
b11000000010000 ;"
b11000000010000 U#
b11000000010000 Q"
b11000000010000 $#
b10100000000001000000000000000000 1
b10100000000001000000000000000000 %#
b10100000000001000000000000000000 !
b10100000000001000000000000000000 3
b11000000000000 #
b11000000000000 :
b11000000000000 g
b11000000000000 L"
b11000000000000 x"
b11000000000000 1$
1$
1Y
b111100000000010001001000110100 ~
b111100000000010001001000110100 l#
b111100000000010001001000110100 s#
b111100000000010001001000110100 }#
b111100000000010001001000110100 '$
b10010001101000000000000000000 N
b10010001101000000000000000000 C"
b10010001101000000000000000000 "$
b10010001101000000000000000000 +$
b1 C
b1 d#
b1 $$
b1 ,$
b10010001101000000000000000000 E
b10010001101000000000000000000 m#
b10010001101000000000000000000 #$
b10010001101000000000000000000 *
b10010001101000000000000000000 4
b10010001101000000000000000000 -"
b10010001101000000000000000000 `"
b10010001101000000000000000000 n#
b10010001101000000000000000000 p#
b10010001101000000000000000000 |#
b10010001101000000000000000000 &$
b1 ?
b1 b#
b1 %$
b1 -$
b110100001000010101011001111000 !"
b110100001000010101011001111000 J#
b110100001000010101011001111000 u#
b11000000000100 j
b11000000000100 O"
b11000000000100 L#
b11000000000100 w#
b101011001111000 O
b101011001111000 D"
b101011001111000 S#
b101011001111000 x#
b1010 a
b1010 O#
b1 T
b1 Q#
b1 Y#
b10010001101000000000000000000 c
b10010001101000000000000000000 N#
b10010001101000000000000000000 e
b10010001101000000000000000000 M#
b1 /"
b1 /#
b1 I#
1*"
b0 @
b0 T#
b0 ]#
b0 {#
b100000010010000000100101 ""
b100000010010000000100101 Y"
b100000010010000000100101 g"
b100000010010000000100101 j"
b100000010010000000100101 y"
b100000010010000000100101 !#
b100000010010000000100101 '#
b100000010010000000100101 >#
b11000000001000 k
b11000000001000 P"
b11000000001000 ##
b11000000001000 (#
b11000000001000 @#
b11000000001100 +
b11000000001100 2
b11000000001100 i
b11000000001100 N"
b11000000001100 "#
b11000000001100 &#
b11000000001100 V#
1,
#32000
0,
